{ "height":100,
 "layers":[
        {
         "draworder":"topdown",
         "height":0,
         "name":"blue",
         "objects":[
                {
                 "gid":1,
                 "height":90,
                 "id":7,
                 "name":"base",
                 "properties":
                    {
                     "static":"true"
                    },
                 "rotation":0,
                 "type":"",
                 "visible":true,
                 "width":90,
                 "x":330,
                 "y":2670
                }, 
                {
                 "height":0,
                 "id":10,
                 "name":"player_1",
                 "properties":
                    {

                    },
                 "rotation":0,
                 "type":"spawn",
                 "visible":true,
                 "width":0,
                 "x":240,
                 "y":2490
                }, 
                {
                 "height":0,
                 "id":20,
                 "name":"player_2",
                 "properties":
                    {

                    },
                 "rotation":0,
                 "type":"",
                 "visible":true,
                 "width":0,
                 "x":510,
                 "y":2760
                }, 
                {
                 "height":0,
                 "id":21,
                 "name":"player_4",
                 "properties":
                    {

                    },
                 "rotation":0,
                 "type":"",
                 "visible":true,
                 "width":0,
                 "x":510,
                 "y":2910
                }, 
                {
                 "height":0,
                 "id":22,
                 "name":"player_3",
                 "properties":
                    {

                    },
                 "rotation":0,
                 "type":"",
                 "visible":true,
                 "width":0,
                 "x":90,
                 "y":2490
                }, 
                {
                 "height":0,
                 "id":24,
                 "name":"bottom_2",
                 "properties":
                    {

                    },
                 "rotation":0,
                 "type":"turret",
                 "visible":true,
                 "width":0,
                 "x":870,
                 "y":2670
                }, 
                {
                 "height":0,
                 "id":25,
                 "name":"top_2",
                 "properties":
                    {

                    },
                 "rotation":0,
                 "type":"turret",
                 "visible":true,
                 "width":0,
                 "x":330,
                 "y":2100
                }, 
                {
                 "height":0,
                 "id":27,
                 "name":"bottom_1",
                 "properties":
                    {

                    },
                 "rotation":0,
                 "type":"turret",
                 "visible":true,
                 "width":0,
                 "x":2130,
                 "y":2670
                }, 
                {
                 "height":0,
                 "id":29,
                 "name":"top_1",
                 "properties":
                    {

                    },
                 "rotation":0,
                 "type":"turret",
                 "visible":true,
                 "width":0,
                 "x":330,
                 "y":870
                }, 
                {
                 "height":0,
                 "id":33,
                 "name":"middle_1",
                 "properties":
                    {

                    },
                 "rotation":0,
                 "type":"turret",
                 "visible":true,
                 "width":0,
                 "x":1230,
                 "y":1770
                }, 
                {
                 "height":150,
                 "id":53,
                 "name":"top",
                 "properties":
                    {

                    },
                 "rotation":0,
                 "type":"drones",
                 "visible":true,
                 "width":150,
                 "x":90,
                 "y":2220
                }, 
                {
                 "height":150,
                 "id":54,
                 "name":"bottom",
                 "properties":
                    {

                    },
                 "rotation":0,
                 "type":"drones",
                 "visible":true,
                 "width":150,
                 "x":630,
                 "y":2760
                }, 
                {
                 "height":150,
                 "id":55,
                 "name":"middle",
                 "properties":
                    {

                    },
                 "rotation":0,
                 "type":"drones",
                 "visible":true,
                 "width":150,
                 "x":450,
                 "y":2400
                }],
         "opacity":1,
         "type":"objectgroup",
         "visible":true,
         "width":0,
         "x":0,
         "y":0
        }, 
        {
         "draworder":"topdown",
         "height":0,
         "name":"green",
         "objects":[
                {
                 "gid":2,
                 "height":90,
                 "id":8,
                 "name":"base",
                 "properties":
                    {
                     "static":"true"
                    },
                 "rotation":0,
                 "type":"",
                 "visible":true,
                 "width":90,
                 "x":2580,
                 "y":420
                }, 
                {
                 "height":0,
                 "id":34,
                 "name":"player_1",
                 "properties":
                    {

                    },
                 "rotation":0,
                 "type":"",
                 "visible":true,
                 "width":0,
                 "x":2760,
                 "y":510
                }, 
                {
                 "height":0,
                 "id":35,
                 "name":"player_2",
                 "properties":
                    {

                    },
                 "rotation":0,
                 "type":"",
                 "visible":true,
                 "width":0,
                 "x":2490,
                 "y":240
                }, 
                {
                 "height":0,
                 "id":36,
                 "name":"player_4",
                 "properties":
                    {

                    },
                 "rotation":0,
                 "type":"",
                 "visible":true,
                 "width":0,
                 "x":2490,
                 "y":90
                }, 
                {
                 "height":0,
                 "id":37,
                 "name":"player_3",
                 "properties":
                    {

                    },
                 "rotation":0,
                 "type":"",
                 "visible":true,
                 "width":0,
                 "x":2910,
                 "y":510
                }, 
                {
                 "height":0,
                 "id":40,
                 "name":"top_2",
                 "properties":
                    {

                    },
                 "rotation":0,
                 "type":"turret",
                 "visible":true,
                 "width":0,
                 "x":2130,
                 "y":330
                }, 
                {
                 "height":0,
                 "id":41,
                 "name":"bottom_2",
                 "properties":
                    {

                    },
                 "rotation":0,
                 "type":"turret",
                 "visible":true,
                 "width":0,
                 "x":2670,
                 "y":870
                }, 
                {
                 "height":0,
                 "id":44,
                 "name":"bottom_1",
                 "properties":
                    {

                    },
                 "rotation":0,
                 "type":"turret",
                 "visible":true,
                 "width":0,
                 "x":2670,
                 "y":2130
                }, 
                {
                 "height":0,
                 "id":46,
                 "name":"top_1",
                 "properties":
                    {

                    },
                 "rotation":0,
                 "type":"turret",
                 "visible":true,
                 "width":0,
                 "x":870,
                 "y":330
                }, 
                {
                 "height":0,
                 "id":52,
                 "name":"middle_1",
                 "properties":
                    {

                    },
                 "rotation":0,
                 "type":"turret",
                 "visible":true,
                 "width":0,
                 "x":1770,
                 "y":1230
                }, 
                {
                 "height":150,
                 "id":64,
                 "name":"middle",
                 "properties":
                    {

                    },
                 "rotation":0,
                 "type":"drones",
                 "visible":true,
                 "width":150,
                 "x":2400,
                 "y":450
                }, 
                {
                 "height":150,
                 "id":65,
                 "name":"top",
                 "properties":
                    {

                    },
                 "rotation":0,
                 "type":"drones",
                 "visible":true,
                 "width":150,
                 "x":2220,
                 "y":90
                }, 
                {
                 "height":150,
                 "id":66,
                 "name":"bottom",
                 "properties":
                    {

                    },
                 "rotation":0,
                 "type":"drones",
                 "visible":true,
                 "width":150,
                 "x":2760,
                 "y":630
                }],
         "opacity":1,
         "type":"objectgroup",
         "visible":true,
         "width":0,
         "x":0,
         "y":0
        }, 
        {
         "draworder":"topdown",
         "height":0,
         "name":"asteroids",
         "objects":[
                {
                 "height":1800,
                 "id":11,
                 "name":"spawn_area",
                 "properties":
                    {

                    },
                 "rotation":0,
                 "type":"",
                 "visible":true,
                 "width":1800,
                 "x":600,
                 "y":600
                }],
         "opacity":1,
         "type":"objectgroup",
         "visible":true,
         "width":0,
         "x":0,
         "y":0
        }],
 "nextobjectid":71,
 "orientation":"orthogonal",
 "properties":
    {

    },
 "renderorder":"right-down",
 "tileheight":30,
 "tilesets":[
        {
         "columns":0,
         "firstgid":1,
         "margin":0,
         "name":"Ships",
         "properties":
            {

            },
         "spacing":0,
         "tilecount":4,
         "tileheight":91,
         "tiles":
            {
             "0":
                {
                 "image":"..\/..\/sprites\/Ships\/ufoBlue.png"
                },
             "1":
                {
                 "image":"..\/..\/sprites\/Ships\/ufoGreen.png"
                },
             "2":
                {
                 "image":"..\/..\/sprites\/Ships\/ufoRed.png"
                },
             "3":
                {
                 "image":"..\/..\/sprites\/Ships\/ufoYellow.png"
                }
            },
         "tilewidth":91
        }],
 "tilewidth":30,
 "version":1,
 "width":100
}